Lily Analysis
…
wideform

summer_winter <- left_join(summer_data, winter_data, 
                     by = "ParticipantCentreID", 
                     suffix = c("-summer", "-winter"))

summer_winter_clean <- na.omit(summer_winter)
reflectance_metrics_ws <- summer_winter_clean %>%
  select(matches("MedianForehead|InnerArm"))
reflectance_metrics_ws

# A tibble: 62 × 32
   `MedianForeheadE-summer` `MedianForeheadM-summer` `MedianForeheadR-summer`
                      <dbl>                    <dbl>                    <dbl>
 1                     18.6                     70.6                       50
 2                     17.4                     74.7                       45
 3                     14.3                     69.6                       51
 4                     19.7                     63.0                       57
 5                     15.3                     82.1                       38
 6                     23.8                     69.0                       51
 7                     18.9                     59.3                       66
 8                     18.6                     64.6                       59
 9                     18.3                     79.8                       39
10                     15.5                     75.0                       44
# ℹ 52 more rows
# ℹ 29 more variables: `MedianForeheadG-summer` <dbl>,
#   `MedianForeheadB-summer` <dbl>, `MedianForeheadL\\*-summer` <dbl>,
#   `MedianForeheada\\*-summer` <dbl>, `MedianForeheadb\\*-summer` <dbl>,
#   `MedianInnerArmE-summer` <dbl>, `MedianInnerArmM-summer` <dbl>,
#   `MedianInnerArmR-summer` <dbl>, `MedianInnerArmG-summer` <dbl>,
#   `MedianInnerArmB-summer` <dbl>, `MedianInnerArmL\\*-summer` <dbl>, …
…
