PCA
…
summer_winter <- summer_winter %>%
  select(matches("MedianForehead|InnerArm|VitD|ParticipantCentreID|Ethnicity"))
summer_winter_clean <- na.omit(summer_winter)
reflectance_metrics_ws <- summer_winter_clean %>%
  select(matches("MedianForehead|InnerArm"))
reflectance_metrics_ws

# A tibble: 52 × 32
   MedianForeheadE_summer MedianForeheadM_summer MedianForeheadR_summer
                    <dbl>                  <dbl>                  <dbl>
 1                   18.6                   70.6                     50
 2                   17.4                   74.7                     45
 3                   14.3                   69.6                     51
 4                   19.7                   63.0                     57
 5                   15.3                   82.1                     38
 6                   23.8                   69.0                     51
 7                   18.9                   59.3                     66
 8                   18.6                   64.6                     59
 9                   15.5                   75.0                     44
10                   19.3                   64.1                     65
# ℹ 42 more rows
# ℹ 29 more variables: MedianForeheadG_summer <dbl>,
#   MedianForeheadB_summer <dbl>, MedianForeheadL_summer <dbl>,
#   MedianForeheada_summer <dbl>, MedianForeheadb_summer <dbl>,
#   InnerArmE_summer <dbl>, InnerArmM_summer <dbl>, InnerArmR_summer <dbl>,
#   InnerArmG_summer <dbl>, InnerArmB_summer <dbl>, InnerArmL_summer <dbl>,
#   InnerArma_summer <dbl>, InnerArmb_summer <dbl>, …
…
