summer-winter
…
plots %>%
  rowwise() %>%
  mutate(
    outfile = paste0("output/withinstats_filtered/", body_site, "_", measurement_type, ".png"),
    saved = {
      if (!is.null(plotobj)) {
        ggsave(outfile, plotobj, width=10, height=6)
        TRUE
      } else FALSE
    }
  )

# A tibble: 24 × 5
# Rowwise: 
   body_site         measurement_type plotobj    outfile                   saved
   <chr>             <chr>            <list>     <chr>                     <lgl>
 1 Forehead          B                <patchwrk> output/withinstats_filte… TRUE 
 2 Forehead          CIE_L            <patchwrk> output/withinstats_filte… TRUE 
 3 Forehead          CIE_a            <patchwrk> output/withinstats_filte… TRUE 
 4 Forehead          CIE_b            <patchwrk> output/withinstats_filte… TRUE 
 5 Forehead          E                <patchwrk> output/withinstats_filte… TRUE 
 6 Forehead          G                <patchwrk> output/withinstats_filte… TRUE 
 7 Forehead          M                <patchwrk> output/withinstats_filte… TRUE 
 8 Forehead          R                <patchwrk> output/withinstats_filte… TRUE 
 9 LeftUpperInnerArm B                <patchwrk> output/withinstats_filte… TRUE 
10 LeftUpperInnerArm CIE_L            <patchwrk> output/withinstats_filte… TRUE 
# ℹ 14 more rows
…
